6 CFA: Basics
…
fitmeasures(model.three.fit, c('aic','ecvi'))

##       aic      ecvi 
## 73216.719     3.779

QUESTION: Which model is better? ANSWER: model.three has a lower chisq value, aic and bic score as compared to model.one \(\therefore\) model.three is better. model.three is also significantly different from model.one

Clean Output

Use either model_parameters or brooms tidy function to neatly print out the model parameters for the three-factor model.

tidy(model.one.fit)

## # A tibble: 61 x 9
##    term        op    estimate std.error statistic p.value std.lv std.all std.nox
##    <chr>       <chr>    <dbl>     <dbl>     <dbl>   <dbl>  <dbl>   <dbl>   <dbl>
##  1 computer =~ =~       1        0           NA        NA  0.653   0.699   0.699
##  2 computer =~ =~       0.716    0.0488      14.7       0  0.468   0.549   0.549
##  3 computer =~ =~       1.39     0.0893      15.5       0  0.905   0.582   0.582
##  4 computer =~ =~       0.620    0.0561      11.0       0  0.405   0.412   0.412
##  5 computer =~ =~       0.889    0.0685      13.0       0  0.581   0.485   0.485
##  6 computer =~ =~       1.18     0.0813      14.5       0  0.769   0.542   0.542
##  7 computer =~ =~       0.728    0.0497      14.6       0  0.476   0.548   0.548
##  8 computer =~ =~       0.977    0.0656      14.9       0  0.638   0.558   0.558
##  9 computer =~ =~       1.01     0.0860      11.8       0  0.660   0.438   0.438
## 10 computer =~ =~       1.06     0.0608      17.5       0  0.694   0.657   0.657
## # ... with 51 more rows

tidy(model.three.fit)

## # A tibble: 66 x 9
##    term        op    estimate std.error statistic p.value std.lv std.all std.nox
##    <chr>       <chr>    <dbl>     <dbl>     <dbl>   <dbl>  <dbl>   <dbl>   <dbl>
##  1 familiarit~ =~       1        0           NA        NA  1.05    0.673   0.673
##  2 familiarit~ =~       0.883    0.0619      14.3       0  0.925   0.564   0.564
##  3 familiarit~ =~       0.933    0.0668      14.0       0  0.977   0.550   0.550
##  4 familiarit~ =~       1.23     0.0719      17.1       0  1.29    0.691   0.691
##  5 familiarit~ =~       1.12     0.0667      16.8       0  1.17    0.674   0.674
##  6 familiarit~ =~       0.638    0.0508      12.5       0  0.667   0.490   0.490
##  7 familiarit~ =~       1.19     0.0746      15.9       0  1.24    0.634   0.634
##  8 familiarit~ =~       0.732    0.0543      13.5       0  0.766   0.529   0.529
##  9 familiarit~ =~       1.11     0.0657      16.8       0  1.16    0.677   0.677
## 10 familiarit~ =~       1.35     0.0729      18.5       0  1.41    0.756   0.756
## # ... with 56 more rows
…
